{
  "name": "album",
  "do": "",
  "dont": "",
  "tags": [
    "play",
    "cd",
    "music",
    "artist",
    "record",
    "Album",
    "track"
  ],
  "category": [
    "av"
  ],
  "type": "static"
}