{
  "name": "bookmark_border",
  "do": "",
  "dont": "",
  "tags": [
    "bookmarks",
    "remember",
    "bookmark",
    "outline",
    "save"
  ],
  "category": [
    "action"
  ],
  "type": "static"
}