{
  "name": "border_style",
  "do": "",
  "dont": "",
  "tags": [
    "border",
    "editor",
    "color",
    "edit",
    "type",
    "stroke",
    "editing",
    "writing",
    "doc",
    "sheet",
    "style",
    "text",
    "speadsheet"
  ],
  "category": [
    "editor"
  ],
  "type": "static"
}