{
  "name": "brightness_3",
  "do": "",
  "dont": "",
  "tags": [
    "brilliance", "illumination", "luminosity", "shine", "luster", "gloss", "glaze", "light"
  ],
  "category": [
    "image"
  ],
  "type": "static"
}