{
  "name": "brightness_high",
  "do": "",
  "dont": "",
  "tags": [
    "auto",
    "high",
    "brightness",
    "phone",
    "mobile",
    "control",
    "monitor"
  ],
  "category": [
    "device"
  ],
  "type": "static"
}