{
  "name": "business",
  "do": "",
  "dont": "",
  "tags": [
    "address",
    "company",
    "building",
    "structure",
    "Business"
  ],
  "category": [
    "communication"
  ],
  "type": "static"
}