{
  "name": "camera_front",
  "do": "",
  "dont": "",
  "tags": [
    "photography", "photo", "image", "cam", "camcorder", "shutter", "album"
  ],
  "category": [
    "image"
  ],
  "type": "static"
}