{
  "name": "card_travel",
  "do": "",
  "dont": "",
  "tags": [
    "bill",
    "pay",
    "dollars",
    "membership",
    "commerce",
    "cart",
    "miles",
    "trip",
    "money",
    "online",
    "currency",
    "payment",
    "credit",
    "travel",
    "cash",
    "card",
    "coin",
    "shopping"
  ],
  "category": [
    "action"
  ],
  "type": "static"
}