{
  "name": "chat_bubble",
  "do": "",
  "dont": "",
  "tags": [
    "bubble",
    "speech",
    "Chat",
    "talk",
    "text",
    "message"
  ],
  "category": [
    "communication"
  ],
  "type": "static"
}