{
  "name": "dialpad",
  "do": "",
  "dont": "",
  "tags": [
    "Dial",
    "call",
    "number",
    "pad",
    "numbers",
    "device"
  ],
  "category": [
    "communication"
  ],
  "type": "static"
}