{
  "name": "email",
  "do": "",
  "dont": "",
  "tags": [
    "note",
    "receive",
    "Email",
    "mail",
    "post",
    "message",
    "send",
    "write"
  ],
  "category": [
    "communication"
  ],
  "type": "static"
}