{
  "name": "enhanced_encryption",
  "do": "",
  "dont": "",
  "tags": [
    "decrypt",
    "decipher",
    "add",
    "include",
    "increase"
  ],
  "category": [
    "notification"
  ],
  "type": "static"
}