{
  "name": "explore",
  "do": "",
  "dont": "",
  "tags": [
    "explore",
    "compass",
    "destination",
    "location",
    "needle",
    "travel",
    "map"
  ],
  "category": [
    "action"
  ],
  "type": "static"
}