{
  "name": "favorite_border",
  "do": "",
  "dont": "",
  "tags": [
    "love",
    "remember",
    "outline",
    "shape",
    "like",
    "save",
    "favorite",
    "heart"
  ],
  "category": [
    "action"
  ],
  "type": "static"
}