{
  "name": "get_app",
  "do": "",
  "dont": "",
  "tags": [
    "download",
    "arrow",
    "get",
    "retrieve",
    "pointing",
    "down"
  ],
  "category": [
    "action"
  ],
  "type": "static"
}