{
  "name": "high_quality",
  "do": "",
  "dont": "",
  "tags": [
    "symbol",
    "tv",
    "movie",
    "Hq",
    "alphabet",
    "type",
    "resolution",
    "quality",
    "movies",
    "character",
    "letter",
    "definition",
    "text",
    "font"
  ],
  "category": [
    "av"
  ],
  "type": "static"
}