{
  "name": "import_export",
  "do": "",
  "dont": "",
  "tags": [
    "Import",
    "arrow",
    "explort",
    "arrows",
    "up",
    "down",
    "direction"
  ],
  "category": [
    "communication"
  ],
  "type": "static"
}