{
  "name": "insert_chart",
  "do": "",
  "dont": "",
  "tags": [
    "add",
    "data",
    "infograpic",
    "tracking",
    "bars",
    "graph",
    "analytics",
    "diagram",
    "bar",
    "measure",
    "metrics",
    "statstics",
    "chart"
  ],
  "category": [
    "editor"
  ],
  "type": "static"
}