{
  "name": "layers",
  "do": "",
  "dont": "",
  "tags": [
    "pages",
    "maps",
    "overlay",
    "arrange",
    "interaction",
    "layers",
    "disabled",
    "slash",
    "enabled",
    "off",
    "on"
  ],
  "category": [
    "maps"
  ],
  "type": "static"
}