{
  "name": "local_laundry_service",
  "do": "",
  "dont": "",
  "tags": [
    "cleaning",
    "washer",
    "laundry",
    "service",
    "hotel",
    "dry",
    "dryer"
  ],
  "category": [
    "maps"
  ],
  "type": "static"
}