{
  "name": "monetization_on",
  "do": "",
  "dont": "",
  "tags": [
    "symbol",
    "bill",
    "pay",
    "dollars",
    "commerce",
    "cart",
    "money",
    "online",
    "currency",
    "payment",
    "circle",
    "credit",
    "cash",
    "card",
    "coin",
    "shopping"
  ],
  "category": [
    "editor"
  ],
  "type": "static"
}