{
  "name": "pageview",
  "do": "",
  "dont": "",
  "tags": [
    "search",
    "paper",
    "find",
    "document",
    "doc",
    "magnifying glass",
    "page"
  ],
  "category": [
    "action"
  ],
  "type": "static"
}