{
  "name": "phone",
  "do": "",
  "dont": "",
  "tags": [
    "call",
    "Phone",
    "chat",
    "mobile",
    "text",
    "device"
  ],
  "category": [
    "communication"
  ],
  "type": "static"
}