{
  "name": "play_circle_filled",
  "do": "",
  "dont": "",
  "tags": [
    "Play",
    "controls",
    "music",
    "arrow",
    "control",
    "video"
  ],
  "category": [
    "av"
  ],
  "type": "static"
}