{
  "name": "portable_wifi_off",
  "do": "",
  "dont": "",
  "tags": [
    "usage",
    "portable",
    "enabled",
    "off",
    "connected",
    "service",
    "connection",
    "disabled",
    "slash",
    "Wifi",
    "device",
    "internet",
    "on"
  ],
  "category": [
    "communication"
  ],
  "type": "static"
}