{
  "name": "radio_button_checked",
  "do": "",
  "dont": "",
  "tags": [
    "selected",
    "marked",
    "confirmed",
    "chosen",
    "picked",
    "option"
  ],
  "category": [
    "toggle"
  ],
  "type": "static"
}