{
  "name": "remove_from_queue",
  "do": "",
  "dont": "",
  "tags": [
    "screen",
    "monitor",
    "collection",
    "list",
    "Queue",
    "device",
    "remove"
  ],
  "category": [
    "av"
  ],
  "type": "static"
}