{
  "name": "settings_applications",
  "do": "",
  "dont": "",
  "tags": [
    "settings",
    "application",
    "service",
    "save",
    "details",
    "information",
    "personal",
    "info"
  ],
  "category": [
    "action"
  ],
  "type": "static"
}