{
  "name": "settings_brightness",
  "do": "",
  "dont": "",
  "tags": [
    "mode",
    "settings",
    "brightness",
    "light",
    "dark"
  ],
  "category": [
    "action"
  ],
  "type": "static"
}