{
  "name": "shop",
  "do": "",
  "dont": "",
  "tags": [
    "add",
    "play",
    "shop",
    "buy",
    "bill",
    "pay",
    "dollars",
    "google",
    "commerce",
    "cart",
    "money",
    "online",
    "currency",
    "payment",
    "credit",
    "cash",
    "card",
    "coin",
    "shopping"
  ],
  "category": [
    "action"
  ],
  "type": "static"
}