{
  "name": "skip_previous",
  "do": "",
  "dont": "",
  "tags": [
    "next",
    "play",
    "controls",
    "music",
    "previous",
    "arrow",
    "Skip",
    "control",
    "video"
  ],
  "category": [
    "av"
  ],
  "type": "static"
}