{
  "name": "strikethrough_s",
  "do": "",
  "dont": "",
  "tags": [
    "editor",
    "symbol",
    "edit",
    "cross",
    "alphabet",
    "type",
    "editing",
    "out",
    "character",
    "letter",
    "writing",
    "doc",
    "sheet",
    "styles",
    "text",
    "font",
    "speadsheet"
  ],
  "category": [
    "editor"
  ],
  "type": "static"
}