{
  "name": "swap_vertical_circle",
  "do": "",
  "dont": "",
  "tags": [
    "arrow",
    "arrows",
    "back",
    "vertical",
    "circle",
    "direction"
  ],
  "category": [
    "action"
  ],
  "type": "static"
}