{
  "name": "thumb_down",
  "do": "",
  "dont": "",
  "tags": [
    "hands",
    "like",
    "rate",
    "dislike",
    "rating",
    "up",
    "fingers",
    "down",
    "favorite",
    "gesture",
    "hand"
  ],
  "category": [
    "action"
  ],
  "type": "static"
}