{
  "name": "view_list",
  "do": "",
  "dont": "",
  "tags": [
    "view",
    "stacked",
    "format",
    "reorder",
    "lines",
    "list",
    "title",
    "order"
  ],
  "category": [
    "action"
  ],
  "type": "static"
}