{
  "name": "api",
  "do": "Use this icon to represent an API.",
  "dont": "Don't use it for an endpoint, there is an icon for this.",
  "tags": [
    "api",
    "kubernetes",
    "data"
  ],
  "category": "development",
  "type": "static"
}
