{
  "name": "file_system",
  "do": "<ul><li>To manage files on a server.</li><li>To control how data is stored and retrieved.</li></ul>",
  "dont": "",
  "tags": [
    "files system",
    "share file",
    "server"
  ],
  "category": "virtualization",
  "type": "static"
}
