{
  "name": "master",
  "do": "<ul><li>Use it to designate a main or principal volume, container, repository, etc</li></ul>",
  "dont": "<ul><li>Don't use it for admin icon </li></ul>",
  "tags": [
    "main",
    "principal",
    "git",
    "kubernetes"
  ],
  "category": "development",
  "type": "static"
}