{
  "name": "move",
  "do": "<ul><li>To represent the action of relocating elements.</li></ul>",
  "dont": "<ul><li>To represent directions.</li></ul>",
  "tags": [
    "move",
    "relocate"
  ],
  "category": "navigation",
  "type": "static"
}
