{
  "name": "packages",
  "do": "<ul><li>To represent a list of packages.</li></ul>",
  "dont": "",
  "tags": [
    "module",
    "extension",
    "upgrade",
    "install"
  ],
  "category": "development",
  "type": "static"
}
