{
  "name": "package_upgrade",
  "do": "<ul><li>To upgrade an existing package.</li></ul>",
  "dont": "<ul><li>To create or install package.</li></ul>",
  "tags": [
    "upgrade",
    "package"
  ],
  "category": "development",
  "type": "static"
}
