{
  "name": "quota",
  "do": "<ul><li>Use to describe the amount of space for a determined hard drive.</li></ul>",
  "dont": "",
  "tags": [
    "space",
    "quota",
    "kubernetes",
    "capacity"
  ],
  "category": "virtualization",
  "type": "static"
}
