{
  "name": "replica",
  "do": "<ul><li>Use it for creating or distinguishing an exact copy of something.</li></ul>",
  "dont": "<ul><li>Dont use it for the action of Copying something, you should use the Copy icon instead.</li></ul>",
  "tags": [
    "duplicate",
    "exactcopy",
    "copysmallerscale"
  ],
  "category": "file",
  "type": "static"
}